{
  "native": {
    "path_ignore": []
  },
  "publish": {
    "web": 0,
    "native": 1,
    "path": "bin-release"
  },
  "egret_version": "3.1.4",
  "modules": [
    {
      "name": "egret"
    },
    {
      "name": "game"
    },
    {
      "name": "tween"
    },
    {
      "name": "res"
    },
    {
			"name": "dragonbones"
		},
		{
			"name": "gui"
		}
  ]
}